…
``` r
participation <- participation %>%
    group_by(event_name, ed_name) %>%
    summarise(participation = sum(participation), 
              registered_voters = sum (registered_voters)) %>%
    mutate(turnout = participation / registered_voters)
```

    ## `summarise()` regrouping output by 'event_name' (override with `.groups` argument)

``` r
participation
```

    ## # A tibble: 336 x 5
    ## # Groups:   event_name [4]
    ##    event_name         ed_name             participation registered_vote~ turnout
    ##    <chr>              <chr>                       <dbl>            <dbl>   <dbl>
    ##  1 General Election ~ Abbotsford-Clayburn         18631            31312   0.595
    ##  2 General Election ~ Abbotsford-Mount L~         19841            34226   0.580
    ##  3 General Election ~ Alberni-Qualicum            26735            38735   0.690
    ##  4 General Election ~ Bulkley Valley-Sti~         13060            18988   0.688
    ##  5 General Election ~ Burnaby-Edmonds             22283            38617   0.577
    ##  6 General Election ~ Burnaby-Willingdon          20051            34958   0.574
    ##  7 General Election ~ Burnaby North               23011            38505   0.598
    ##  8 General Election ~ Burquitlam                  21817            36089   0.605
    ##  9 General Election ~ Cariboo North               15679            24399   0.643
    ## 10 General Election ~ Cariboo South               15916            23604   0.674
    ## # ... with 326 more rows
